…
```R
> library(tidyr)
> 
> # Combine start and end stations into one column and count
> top_non_tourist_stations <- non_tourist_customer_rides_df %>%
+     select(start_station_id, end_station_id) %>%
+     pivot_longer(cols = everything(), values_to = "station_id") %>%
+     group_by(station_id) %>%
+     summarise(customer_ride_count = n(), .groups = "drop") %>%
+     arrange(desc(customer_ride_count)) %>%
+     slice_head(n = 25)
> 
> print(top_non_tourist_stations)
# A tibble: 25 × 2
   station_id customer_ride_count
        <int>               <int>
 1        936              142856
 2        967               90518
 3        577               51554
 4        579               47154
 5        752               40662
 6        307               40629
 7        434               37243
 8        942               36976
 9        292               36122
10        656               34665
# ℹ 15 more rows
# ℹ Use `print(n = ...)` to see more rows
…
